%YAML 1.1
%TAG !u! tag:unity3d.com,2011:
--- !u!1045 &1
EditorBuildSettings:
  m_ObjectHideFlags: 0
  serializedVersion: 2
  m_Scenes:
  - enabled: 1
    path: Assets/Scenas/Menu.unity
    guid: 55bb6df4d75c21141af779aec507d6d2
  - enabled: 1
    path: Assets/Scenas/Main.unity
    guid: baf564ed3ff8d7e46bebd12a78575621
  - enabled: 1
    path: Assets/Scenas/GameOver.unity
    guid: 895c69d394595824ea7541e9361204a7
  - enabled: 0
    path: Assets/Scenas/HighscoreBoard.unity
    guid: 8c18b52ade6739649b4164bf3eaa28eb
  - enabled: 0
    path: 
    guid: 00000000000000000000000000000000
  - enabled: 1
    path: Assets/Scenas/HighscoreBoard - Copy.unity
    guid: ae5d3ab501d4d7448a54037c95b8f9f3
  m_configObjects: {}
